…
``` r
tmp <- tempfile(fileext = ".csv")
readr::write_csv(iris, tmp)
```

### Scenario 1: has headers give it different once

In the first scenario we can provide a character vector to `col_names`.

``` r
readr::read_csv(tmp, col_names = c("a", "b", "c", "d", "e"))
```

    # A tibble: 151 × 5
       a            b           c            d           e      
       <chr>        <chr>       <chr>        <chr>       <chr>  
     1 Sepal.Length Sepal.Width Petal.Length Petal.Width Species
     2 5.1          3.5         1.4          0.2         setosa 
     3 4.9          3           1.4          0.2         setosa 
     4 4.7          3.2         1.3          0.2         setosa 
     5 4.6          3.1         1.5          0.2         setosa 
     6 5            3.6         1.4          0.2         setosa 
     7 5.4          3.9         1.7          0.4         setosa 
     8 4.6          3.4         1.4          0.3         setosa 
     9 5            3.4         1.5          0.2         setosa 
    10 4.4          2.9         1.4          0.2         setosa 
    # ℹ 141 more rows

Here we can see that `col_names = character()` assumes that there isn’t
any header. To accomplish this we need to set `skip = 1` to not read the
first line where the header actually is.

``` r
readr::read_csv(
    tmp,
    col_names = c("a", "b", "c", "d", "e"),
    skip = 1
)
```

    # A tibble: 150 × 5
           a     b     c     d e     
       <dbl> <dbl> <dbl> <dbl> <chr> 
     1   5.1   3.5   1.4   0.2 setosa
     2   4.9   3     1.4   0.2 setosa
     3   4.7   3.2   1.3   0.2 setosa
     4   4.6   3.1   1.5   0.2 setosa
     5   5     3.6   1.4   0.2 setosa
     6   5.4   3.9   1.7   0.4 setosa
     7   4.6   3.4   1.4   0.3 setosa
     8   5     3.4   1.5   0.2 setosa
     9   4.4   2.9   1.4   0.2 setosa
    10   4.9   3.1   1.5   0.1 setosa
    # ℹ 140 more rows
…
In the case of `write_csv()` the argument `col_names` is *always* a
logical scalar

</div>

In this case, the `col_names = character()` works well!

``` r
readr::read_csv(
    tmp,
    col_names = c("a", "b", "c", "d", "e")
)
```

    # A tibble: 150 × 5
           a     b     c     d e     
       <dbl> <dbl> <dbl> <dbl> <chr> 
     1   5.1   3.5   1.4   0.2 setosa
     2   4.9   3     1.4   0.2 setosa
     3   4.7   3.2   1.3   0.2 setosa
     4   4.6   3.1   1.5   0.2 setosa
     5   5     3.6   1.4   0.2 setosa
     6   5.4   3.9   1.7   0.4 setosa
     7   4.6   3.4   1.4   0.3 setosa
     8   5     3.4   1.5   0.2 setosa
     9   4.4   2.9   1.4   0.2 setosa
    10   4.9   3.1   1.5   0.1 setosa
    # ℹ 140 more rows

Here are the other two scenarios:

``` r
readr::read_csv(tmp)
```

    # A tibble: 149 × 5
       `5.1` `3.5` `1.4` `0.2` setosa
       <dbl> <dbl> <dbl> <dbl> <chr> 
     1   4.9   3     1.4   0.2 setosa
     2   4.7   3.2   1.3   0.2 setosa
     3   4.6   3.1   1.5   0.2 setosa
     4   5     3.6   1.4   0.2 setosa
     5   5.4   3.9   1.7   0.4 setosa
     6   4.6   3.4   1.4   0.3 setosa
     7   5     3.4   1.5   0.2 setosa
     8   4.4   2.9   1.4   0.2 setosa
     9   4.9   3.1   1.5   0.1 setosa
    10   5.4   3.7   1.5   0.2 setosa
    # ℹ 139 more rows

``` r
readr::read_csv(tmp, col_names = FALSE)
```

    # A tibble: 150 × 5
          X1    X2    X3    X4 X5    
       <dbl> <dbl> <dbl> <dbl> <chr> 
     1   5.1   3.5   1.4   0.2 setosa
     2   4.9   3     1.4   0.2 setosa
     3   4.7   3.2   1.3   0.2 setosa
     4   4.6   3.1   1.5   0.2 setosa
     5   5     3.6   1.4   0.2 setosa
     6   5.4   3.9   1.7   0.4 setosa
     7   4.6   3.4   1.4   0.3 setosa
     8   5     3.4   1.5   0.2 setosa
     9   4.4   2.9   1.4   0.2 setosa
    10   4.9   3.1   1.5   0.1 setosa
    # ℹ 140 more rows
…
