…
Next we apply the layer to the *X* and *A* matrices to get our *Ŷ*
predictions.

``` r
tibble::tibble(
  gcn_preds = as.numeric(layer(X, adj)),
  slx_preds = unname(slx_mod$fitted.values)
)
```

    # A tibble: 85 × 2
       gcn_preds slx_preds
           <dbl>     <dbl>
     1     47.9      47.9 
     2     18.1      18.1 
     3     64.9      64.9 
     4     46.5      46.5 
     5     52.0      52.0 
     6     49.4      49.4 
     7      6.78      6.78
     8     45.5      45.5 
     9     10.9      10.9 
    10     44.1      44.1 
    # ℹ 75 more rows
…
